\relax 
\citation{pike,mcelroy,rueda2014}
\citation{raymond1999,ruestas}
\citation{kleppmann}
\citation{pike}
\citation{rueda2014}
\citation{torvalds}
\@writefile{toc}{\contentsline {title}{Filosofía UNIX y Gestión del Conocimiento}{1}\protected@file@percent }
\@writefile{toc}{\authcount {1}}
\@writefile{toc}{\contentsline {author}{Filosofía UNIX y Gestión del Conocimiento}{1}\protected@file@percent }
\@writefile{toc}{\contentsline {section}{\numberline {1}Introducción}{1}\protected@file@percent }
\@writefile{toc}{\contentsline {section}{\numberline {2}Filosofía UNIX}{1}\protected@file@percent }
\@writefile{toc}{\contentsline {subsection}{\numberline {2.1}Estructura común}{1}\protected@file@percent }
\citation{kerschberg,raymond2003}
\citation{ritchie,perez2016}
\citation{raymond2003,ritchie}
\citation{pike,gancarz}
\citation{gancarz,salus}
\citation{gancarz,mcilroy}
\citation{rueda2014}
\citation{kernighan,reiss}
\citation{gancarz,salus}
\citation{hunt}
\@writefile{toc}{\contentsline {subsection}{\numberline {2.2}Modularidad}{2}\protected@file@percent }
\@writefile{toc}{\contentsline {subsection}{\numberline {2.3}Contenedor}{2}\protected@file@percent }
\citation{raymond1999}
\citation{odell}
\citation{nonaka}
\citation{gancarz,mcilroy,wigg}
\citation{kleppmann}
\citation{buterin}
\@writefile{toc}{\contentsline {subsubsection}{Mínimo Común Denominador}{3}\protected@file@percent }
\@writefile{toc}{\contentsline {subsubsection}{Fácil de manipular}{3}\protected@file@percent }
\@writefile{toc}{\contentsline {subsubsection}{Fácil de mantener}{3}\protected@file@percent }
\@writefile{toc}{\contentsline {subsubsection}{Fácil de comprobar}{3}\protected@file@percent }
\@writefile{toc}{\contentsline {subsubsection}{Liviano}{3}\protected@file@percent }
\@writefile{toc}{\contentsline {subsubsection}{Persistente}{3}\protected@file@percent }
\@writefile{toc}{\contentsline {subsection}{\numberline {2.4}Comunidad}{3}\protected@file@percent }
\@writefile{toc}{\contentsline {section}{\numberline {3}Conclusión}{3}\protected@file@percent }
\citation{mcilroy,schnalke}
\bibcite{buterin}{1}
\bibcite{earl}{2}
\bibcite{gancarz}{3}
\bibcite{garwin}{4}
\bibcite{hunt}{5}
\bibcite{kernighan}{6}
\bibcite{pike}{7}
\bibcite{kerschberg}{8}
\bibcite{kleppmann}{9}
\bibcite{mcelroy}{10}
\bibcite{mcilroy}{11}
\bibcite{nonaka}{12}
\bibcite{odell}{13}
\bibcite{perez2016}{14}
\bibcite{raymond1999}{15}
\bibcite{raymond2003}{16}
\bibcite{reiss}{17}
\bibcite{ritchie}{18}
\bibcite{rueda2014}{19}
\bibcite{ruestas}{20}
\bibcite{salus}{21}
\bibcite{schnalke}{22}
\bibcite{torvalds}{23}
\bibcite{wigg}{24}
